module gitlab.com/golang-package-library/minio

go 1.17

require (
	github.com/minio/minio-go/v7 v7.0.26
	gitlab.com/golang-package-library/env v0.0.0-20220522085307-1f1e68f337d0
)

require (
	github.com/dustin/go-humanize v1.0.0 // indirect
	github.com/google/uuid v1.1.1 // indirect
	github.com/gopherjs/gopherjs v0.0.0-20181017120253-0766667cb4d1 // indirect
	github.com/json-iterator/go v1.1.12 // indirect
	github.com/jtolds/gls v4.20.0+incompatible // indirect
	github.com/klauspost/compress v1.13.5 // indirect
	github.com/klauspost/cpuid v1.3.1 // indirect
	github.com/minio/md5-simd v1.1.0 // indirect
	github.com/minio/sha256-simd v0.1.1 // indirect
	github.com/mitchellh/go-homedir v1.1.0 // indirect
	github.com/modern-go/concurrent v0.0.0-20180306012644-bacd9c7ef1dd // indirect
	github.com/modern-go/reflect2 v1.0.2 // indirect
	github.com/rs/xid v1.2.1 // indirect
	github.com/sirupsen/logrus v1.8.1 // indirect
	github.com/smartystreets/assertions v0.0.0-20180927180507-b2de0cb4f26d // indirect
	golang.org/x/crypto v0.0.0-20201216223049-8b5274cf687f // indirect
	golang.org/x/net v0.0.0-20200707034311-ab3426394381 // indirect
	golang.org/x/sys v0.0.0-20200625212154-ddb9806d33ae // indirect
	golang.org/x/text v0.3.3 // indirect
	gopkg.in/ini.v1 v1.57.0 // indirect
)
